[gd_scene load_steps=3 format=2]

[ext_resource path="res://Scenes/SupportScenes/Object.gd" type="Script" id=1]

[sub_resource type="CircleShape2D" id=1]
radius = 16.0

[node name="Object" type="Node2D"]
script = ExtResource( 1 )

[node name="Area2D" type="Area2D" parent="."]

[node name="CollisionShape2D" type="CollisionShape2D" parent="Area2D"]
shape = SubResource( 1 )
