[gd_scene load_steps=3 format=2]

[ext_resource path="res://Scenes/SupportScenes/Player.gd" type="Script" id=1]

[sub_resource type="CircleShape2D" id=1]
radius = 4.0

[node name="Player" type="Node2D"]
script = ExtResource( 1 )

[node name="Username" type="Label" parent="."]
margin_right = 40.0
margin_bottom = 14.0
text = "Username"
__meta__ = {
"_edit_use_anchors_": false
}

[node name="Pointer" type="Area2D" parent="."]

[node name="CollisionShape2D" type="CollisionShape2D" parent="Pointer"]
shape = SubResource( 1 )
